[
    {
        "artists": {
            "href": "https://api.spotify.com/v1/search?offset=0&limit=1&query=Drake&type=artist",
            "limit": 1,
            "next": "https://api.spotify.com/v1/search?offset=1&limit=1&query=Drake&type=artist",
            "offset": 0,
            "previous": null,
            "total": 100,
            "items": [
                {
                    "external_urls": {
                        "spotify": "https://open.spotify.com/artist/3TVXtAsR1Inumwj472S9r4"
                    },
                    "followers": {
                        "href": null,
                        "total": 97809415
                    },
                    "genres": [
                        "rap",
                        "hip hop"
                    ],
                    "href": "https://api.spotify.com/v1/artists/3TVXtAsR1Inumwj472S9r4",
                    "id": "3TVXtAsR1Inumwj472S9r4",
                    "images": [
                        {
                            "url": "https://i.scdn.co/image/ab6761610000e5eb4293385d324db8558179afd9",
                            "height": 640,
                            "width": 640
                        },
                        {
                            "url": "https://i.scdn.co/image/ab676161000051744293385d324db8558179afd9",
                            "height": 320,
                            "width": 320
                        },
                        {
                            "url": "https://i.scdn.co/image/ab6761610000f1784293385d324db8558179afd9",
                            "height": 160,
                            "width": 160
                        }
                    ],
                    "name": "Drake",
                    "popularity": 98,
                    "type": "artist",
                    "uri": "spotify:artist:3TVXtAsR1Inumwj472S9r4"
                }
            ]
        }
    },
    {
        "artists": {
            "href": "https://api.spotify.com/v1/search?offset=0&limit=1&query=Taylor%20Swift&type=artist",
            "limit": 1,
            "next": "https://api.spotify.com/v1/search?offset=1&limit=1&query=Taylor%20Swift&type=artist",
            "offset": 0,
            "previous": null,
            "total": 811,
            "items": [
                {
                    "external_urls": {
                        "spotify": "https://open.spotify.com/artist/06HL4z0CvFAxyc27GXpf02"
                    },
                    "followers": {
                        "href": null,
                        "total": 135814068
                    },
                    "genres": [],
                    "href": "https://api.spotify.com/v1/artists/06HL4z0CvFAxyc27GXpf02",
                    "id": "06HL4z0CvFAxyc27GXpf02",
                    "images": [
                        {
                            "url": "https://i.scdn.co/image/ab6761610000e5ebe672b5f553298dcdccb0e676",
                            "height": 640,
                            "width": 640
                        },
                        {
                            "url": "https://i.scdn.co/image/ab67616100005174e672b5f553298dcdccb0e676",
                            "height": 320,
                            "width": 320
                        },
                        {
                            "url": "https://i.scdn.co/image/ab6761610000f178e672b5f553298dcdccb0e676",
                            "height": 160,
                            "width": 160
                        }
                    ],
                    "name": "Taylor Swift",
                    "popularity": 98,
                    "type": "artist",
                    "uri": "spotify:artist:06HL4z0CvFAxyc27GXpf02"
                }
            ]
        }
    },
    {
        "artists": {
            "href": "https://api.spotify.com/v1/search?offset=0&limit=1&query=John%20Summit&type=artist",
            "limit": 1,
            "next": "https://api.spotify.com/v1/search?offset=1&limit=1&query=John%20Summit&type=artist",
            "offset": 0,
            "previous": null,
            "total": 806,
            "items": [
                {
                    "external_urls": {
                        "spotify": "https://open.spotify.com/artist/7kNqXtgeIwFtelmRjWv205"
                    },
                    "followers": {
                        "href": null,
                        "total": 479183
                    },
                    "genres": [
                        "house",
                        "tech house"
                    ],
                    "href": "https://api.spotify.com/v1/artists/7kNqXtgeIwFtelmRjWv205",
                    "id": "7kNqXtgeIwFtelmRjWv205",
                    "images": [
                        {
                            "url": "https://i.scdn.co/image/ab6761610000e5eb81180f8a7fd1f2c2e657c436",
                            "height": 640,
                            "width": 640
                        },
                        {
                            "url": "https://i.scdn.co/image/ab6761610000517481180f8a7fd1f2c2e657c436",
                            "height": 320,
                            "width": 320
                        },
                        {
                            "url": "https://i.scdn.co/image/ab6761610000f17881180f8a7fd1f2c2e657c436",
                            "height": 160,
                            "width": 160
                        }
                    ],
                    "name": "John Summit",
                    "popularity": 75,
                    "type": "artist",
                    "uri": "spotify:artist:7kNqXtgeIwFtelmRjWv205"
                }
            ]
        }
    },
    {
        "artists": {
            "href": "https://api.spotify.com/v1/search?offset=0&limit=1&query=gunna&type=artist",
            "limit": 1,
            "next": "https://api.spotify.com/v1/search?offset=1&limit=1&query=gunna&type=artist",
            "offset": 0,
            "previous": null,
            "total": 100,
            "items": [
                {
                    "external_urls": {
                        "spotify": "https://open.spotify.com/artist/2hlmm7s2ICUX0LVIhVFlZQ"
                    },
                    "followers": {
                        "href": null,
                        "total": 9321949
                    },
                    "genres": [
                        "melodic rap"
                    ],
                    "href": "https://api.spotify.com/v1/artists/2hlmm7s2ICUX0LVIhVFlZQ",
                    "id": "2hlmm7s2ICUX0LVIhVFlZQ",
                    "images": [
                        {
                            "url": "https://i.scdn.co/image/ab6761610000e5ebb978b95b8e03351df8e103af",
                            "height": 640,
                            "width": 640
                        },
                        {
                            "url": "https://i.scdn.co/image/ab67616100005174b978b95b8e03351df8e103af",
                            "height": 320,
                            "width": 320
                        },
                        {
                            "url": "https://i.scdn.co/image/ab6761610000f178b978b95b8e03351df8e103af",
                            "height": 160,
                            "width": 160
                        }
                    ],
                    "name": "Gunna",
                    "popularity": 87,
                    "type": "artist",
                    "uri": "spotify:artist:2hlmm7s2ICUX0LVIhVFlZQ"
                }
            ]
        }
    },
    {
        "artists": {
            "href": "https://api.spotify.com/v1/search?offset=0&limit=1&query=mau%20P&type=artist",
            "limit": 1,
            "next": "https://api.spotify.com/v1/search?offset=1&limit=1&query=mau%20P&type=artist",
            "offset": 0,
            "previous": null,
            "total": 100,
            "items": [
                {
                    "external_urls": {
                        "spotify": "https://open.spotify.com/artist/0w1sbtZVQoK6GzV4A4OkCv"
                    },
                    "followers": {
                        "href": null,
                        "total": 157328
                    },
                    "genres": [
                        "tech house",
                        "house"
                    ],
                    "href": "https://api.spotify.com/v1/artists/0w1sbtZVQoK6GzV4A4OkCv",
                    "id": "0w1sbtZVQoK6GzV4A4OkCv",
                    "images": [
                        {
                            "url": "https://i.scdn.co/image/ab6761610000e5ebc494c9e97f2c6ee7560db705",
                            "height": 640,
                            "width": 640
                        },
                        {
                            "url": "https://i.scdn.co/image/ab67616100005174c494c9e97f2c6ee7560db705",
                            "height": 320,
                            "width": 320
                        },
                        {
                            "url": "https://i.scdn.co/image/ab6761610000f178c494c9e97f2c6ee7560db705",
                            "height": 160,
                            "width": 160
                        }
                    ],
                    "name": "Mau P",
                    "popularity": 67,
                    "type": "artist",
                    "uri": "spotify:artist:0w1sbtZVQoK6GzV4A4OkCv"
                }
            ]
        }
    }
]